<svg xmlns="http://www.w3.org/2000/svg" width="26.651" height="45.795" viewBox="0 0 26.651 45.795">
  <defs>
    <style>
      .cls-1 {
        fill: none;
        stroke: #fff;
        stroke-miterlimit: 10;
        stroke-width: 4px;
      }
    </style>
  </defs>
  <g id="Group_1307" data-name="Group 1307" transform="translate(-27.59 -17.265)">
    <path id="Path_3747" data-name="Path 3747" class="cls-1" d="M163.449,434.186l22.377-21.454-22.377-21.454" transform="translate(-134.475 -372.57)"/>
  </g>
</svg>
